ml-models-exercise – Pooja Gokhale Data Analysis Portfolio
…
# 4. Get RMSE results
rmse_results <- lasso_res %>%
  collect_predictions() %>%
  group_by(penalty) %>%
  summarize(rmse = sqrt(mean((Y - .pred)^2)))

# View results
print(rmse_results)

# A tibble: 50 × 2
     penalty  rmse
       <dbl> <dbl>
 1 0.00001    581.
 2 0.0000139  581.
 3 0.0000193  581.
 4 0.0000268  581.
 5 0.0000373  581.
 6 0.0000518  581.
 7 0.0000720  581.
 8 0.0001     581.
 9 0.000139   581.
10 0.000193   581.
# ℹ 40 more rows
…
# Perform tuning for LASSO using 5x5 cross-validation
lasso_res <- tune_grid(
  object = lasso_spec,                # LASSO model specification
  preprocessor = Y ~ DOSE + HT + WT + AGE + SEX + RACE + BMI,  # Formula for the recipe
  resamples = cv_folds,               # Use 5x5 cross-validation
  grid = penalty_grid,                # Use the LASSO tuning grid
  metrics = metric_set(rmse),         # Use RMSE for evaluation
  control = control_grid(save_pred = TRUE)  # Save predictions for manual calculation
)

# Collect all metrics from the tuning results
lasso_metrics <- collect_metrics(lasso_res)
lasso_metrics

# A tibble: 50 × 7
     penalty .metric .estimator  mean     n std_err .config              
       <dbl> <chr>   <chr>      <dbl> <int>   <dbl> <chr>                
 1 0.00001   rmse    standard    615.    25    20.6 Preprocessor1_Model01
 2 0.0000139 rmse    standard    615.    25    20.6 Preprocessor1_Model02
 3 0.0000193 rmse    standard    615.    25    20.6 Preprocessor1_Model03
 4 0.0000268 rmse    standard    615.    25    20.6 Preprocessor1_Model04
 5 0.0000373 rmse    standard    615.    25    20.6 Preprocessor1_Model05
 6 0.0000518 rmse    standard    615.    25    20.6 Preprocessor1_Model06
 7 0.0000720 rmse    standard    615.    25    20.6 Preprocessor1_Model07
 8 0.0001    rmse    standard    615.    25    20.6 Preprocessor1_Model08
 9 0.000139  rmse    standard    615.    25    20.6 Preprocessor1_Model09
10 0.000193  rmse    standard    615.    25    20.6 Preprocessor1_Model10
# ℹ 40 more rows
…
