Pooja Gokhale Data Analysis Portfolio - Fitting Exercise
…
Exclude observations with time = 0

drug_mag2 = drug_mag1 %>%
  filter(TIME!= 0)

Compute the sum

Y= drug_mag2 %>%
  group_by(ID) %>%
  summarize(Y = sum(DV, na.rm = TRUE))
print(Y)

# A tibble: 120 × 2
      ID     Y
   <int> <dbl>
 1   793 2691.
 2   794 2639.
 3   795 2150.
 4   796 1789.
 5   797 3126.
 6   798 2337.
 7   799 3007.
 8   800 2796.
 9   801 3866.
10   802 1762.
# ℹ 110 more rows
…
