R Coding Exercise – Pooja Gokhale Data Analysis Portfolio
…
We have data for the same country multiple times (over multiple years) - the data spans time from 1960 to 2016, so the population grows over time. Since we have multiple years of data for multiple countries, it is difficult to identify patterns. We can take a look at a single year and try to see if the plot looks different.

First, find missing values in africadata by year.

missing_infant_mortality = africadata %>% 
  group_by(year) %>%
  summarize(missing_values = sum(is.na(infant_mortality)))
print(missing_infant_mortality)

# A tibble: 57 × 2
    year missing_values
   <int>          <int>
 1  1960             10
 2  1961             17
 3  1962             16
 4  1963             16
 5  1964             15
 6  1965             14
 7  1966             13
 8  1967             11
 9  1968             11
10  1969              7
# ℹ 47 more rows
…
